39	22	
10	9	
26	51	
75	19	
1	19	
77	6	
35	83	
20	78	
23	49	
22	18	
89	28	
17	62	
62	95	
97	22	
55	96	
68	78	
64	79	
46	57	
10	30	
35	69	
74	87	
66	27	
33	80	
43	37	
21	76	
22	85	
37	82	
19	15	
83	17	
24	92	
96	80	
91	8	
48	78	
67	96	
48	4	
84	63	
14	70	
97	78	
74	97	
15	58	
57	22	
7	72	
18	54	
73	33	
93	67	
56	29	
82	86	
86	16	
48	66	
3	84	
82	64	
6	90	
32	17	
50	50	
10	78	
18	7	
58	79	
7	70	
22	84	
44	28	
36	50	
3	23	
69	2	
7	77	
31	14	
35	15	
14	19	
61	98	
70	24	
0	71	
97	52	
47	4	
4	71	
73	93	
6	6	
14	49	
5	67	
52	5	
68	49	
14	55	
99	66	
21	72	
8	55	
78	33	
99	85	
93	23	
65	7	
40	5	
58	16	
8	62	
91	9	
96	97	
59	99	
89	79	
51	89	
24	70	
11	8	
86	38	
42	60	
64	28	
84	23	
13	89	
97	54	
49	11	
25	3	
60	89	
46	60	
19	35	
79	91	
81	32	
97	44	
88	17	
95	1	
67	63	
49	42	
10	37	
22	57	
40	33	
25	99	
89	51	
67	94	
9	8	
63	70	
27	27	
55	57	
54	51	
15	59	
52	95	
52	79	
93	77	
16	29	
51	9	
50	75	
88	8	
23	5	
58	20	
18	20	
17	79	
47	85	
0	5	
84	70	
11	19	
55	75	
80	81	
35	9	
56	13	
25	48	
30	80	
57	80	
89	46	
45	95	
79	45	
31	6	
14	33	
56	10	
36	52	
52	91	
19	4	
74	58	
50	36	
70	29	
6	78	
80	23	
73	100	
36	65	
68	56	
66	20	
97	21	
69	68	
69	4	
46	31	
100	68	
78	5	
92	53	
49	13	
94	3	
48	77	
73	94	
50	84	
34	41	
18	100	
22	83	
29	3	
41	68	
31	33	
21	35	
23	37	
23	45	
63	18	
43	67	
56	87	
7	94	
3	99	
15	8	
26	96	
68	54	
68	29	
7	45	
68	90	
34	40	
56	83	
84	40	
89	97	
49	33	
32	52	
80	9	
18	2	
67	26	
93	11	
4	72	
75	71	
94	90	
62	29	
49	59	
8	98	
0	91	
72	91	
40	36	
21	6	
65	68	
18	14	
86	44	
35	33	
4	29	
57	2	
52	23	
40	51	
2	70	
78	41	
33	48	
95	19	
46	53	
84	42	
1	37	
35	29	
62	8	
51	3	
19	60	
43	78	
69	19	
72	81	
83	72	
72	88	
87	17	
20	9	
77	83	
91	39	
13	26	
29	13	
48	57	
45	18	
88	65	
28	0	
18	63	
31	38	
25	38	
56	44	
20	1	
48	51	
55	17	
88	41	
20	50	
46	16	
33	16	
90	68	
51	72	
45	90	
70	45	
7	16	
62	44	
93	85	
89	47	
69	37	
59	60	
29	28	
39	60	
74	76	
90	15	
30	94	
57	82	
94	87	
83	1	
93	28	
16	30	
52	77	
67	17	
81	16	
92	80	
31	60	
11	73	
90	62	
26	87	
41	64	
50	28	
9	50	
77	10	
34	83	
55	88	
39	63	
38	50	
21	23	
75	78	
2	63	
70	90	
55	32	
27	10	
94	79	
54	24	
22	23	
83	33	
76	21	
90	65	
21	29	
55	60	
4	39	
16	64	
38	55	
97	26	
40	63	
83	25	
70	3	
41	82	
20	82	
36	53	
23	88	
48	67	
92	20	
49	40	
30	41	
32	38	
44	5	
86	15	
70	33	
16	81	
64	46	
23	14	
30	65	
85	12	
61	35	
69	7	
68	7	
34	56	
27	97	
15	43	
12	15	
59	48	
38	56	
69	3	
73	49	
43	43	
56	81	
2	5	
31	5	
34	84	
64	40	
64	16	
8	83	
79	94	
23	87	
15	50	
18	62	
89	89	
84	49	
20	91	
19	46	
48	91	
65	94	
56	56	
28	86	
52	58	
67	70	
92	18	
78	35	
4	57	
14	0	
26	57	
69	74	
49	75	
94	13	
4	43	
64	70	
27	92	
25	6	
85	20	
45	50	
78	10	
29	44	
95	69	
54	97	
67	34	
28	64	
57	34	
95	74	
24	69	
16	22	
63	32	
34	87	
26	35	
11	0	
74	80	
77	82	
28	17	
28	1	
88	47	
96	28	
13	92	
18	52	
96	99	
51	41	
5	52	
5	38	
32	66	
31	40	
7	96	
69	44	
30	82	
91	60	
1	94	
15	48	
3	26	
91	69	
8	96	
76	93	
82	44	
44	22	
88	83	
81	97	
57	19	
92	83	
29	63	
78	98	
31	88	
76	75	
78	81	
31	70	
46	88	
12	55	
19	26	
45	91	
73	27	
69	20	
39	15	
28	92	
87	34	
13	80	
99	53	
33	57	
1	20	
12	45	
0	86	
18	1	
66	63	
21	43	
41	95	
80	67	
71	52	
23	66	
34	35	
99	57	
28	46	
12	71	
9	66	
38	63	
88	87	
52	26	
20	77	
20	72	
50	52	
59	0	
73	23	
57	60	
77	76	
30	46	
44	63	
22	58	
52	22	
82	37	
2	29	
70	66	
95	16	
94	52	
99	59	
61	87	
11	93	
69	28	
61	92	
29	25	
21	17	
25	45	
49	16	
92	7	
31	46	
44	82	
71	96	
97	42	
44	75	
11	36	
38	15	
25	44	
98	55	
49	49	
33	23	
18	99	
99	10	
18	8	
45	60	
39	7	
93	15	
66	16	
61	67	
3	73	
38	67	
54	48	
98	64	
51	26	
7	79	
35	100	
30	33	
13	42	
18	38	
7	22	
26	32	
1	97	
53	39	
77	42	
66	60	
12	23	
74	48	
55	33	
43	74	
8	75	
35	63	
0	22	
50	85	
55	35	
13	67	
21	1	
59	45	
45	39	
12	90	
95	6	
3	80	
46	19	
81	22	
82	80	
78	70	
6	81	
98	5	
12	68	
48	11	
92	66	
0	95	
83	49	
14	82	
91	11	
97	64	
53	49	
2	41	
53	85	
29	35	
44	31	
88	21	
78	13	
88	34	
46	100	
45	17	
0	40	
98	8	
53	48	
55	3	
26	29	
47	60	
42	33	
69	92	
13	91	
55	51	
66	26	
95	47	
51	91	
70	68	
9	58	
72	63	
12	62	
45	80	
73	79	
41	63	
39	87	
80	47	
76	97	
65	34	
29	31	
8	60	
58	88	
41	39	
71	13	
31	73	
26	11	
32	25	
7	25	
83	83	
68	13	
78	39	
81	58	
81	30	
77	27	
0	15	
9	92	
76	33	
59	24	
50	97	
61	76	
43	26	
33	13	
15	3	
1	56	
95	77	
6	71	
4	13	
14	2	
15	32	
2	3	
44	4	
86	75	
47	18	
79	16	
92	33	
42	29	
27	49	
92	57	
30	95	
34	45	
38	90	
88	88	
18	16	
80	65	
6	19	
31	3	
70	58	
42	68	
44	40	
99	7	
55	47	
37	22	
29	83	
88	15	
7	40	
62	83	
54	15	
22	99	
92	89	
5	89	
30	29	
80	26	
75	85	
75	47	
16	63	
53	62	
88	7	
41	90	
54	94	
28	56	
98	73	
66	3	
40	4	
82	46	
37	93	
54	26	
61	34	
73	66	
37	38	
76	86	
71	45	
51	76	
52	70	
59	20	
59	51	
57	57	
63	7	
90	60	
23	77	
45	30	
42	14	
82	27	
69	25	
50	51	
58	98	
50	1	
93	22	
17	28	
11	64	
53	29	
41	26	
42	0	
99	13	
55	16	
20	49	
77	74	
62	79	
95	51	
99	61	
32	59	
95	10	
77	53	
47	58	
86	95	
33	75	
46	46	
78	92	
2	59	
26	48	
33	3	
75	65	
1	89	
24	52	
72	100	
19	9	
32	20	
24	58	
23	6	
7	83	
77	0	
71	7	
40	2	
89	54	
29	68	
58	55	
68	0	
44	45	
8	86	
83	51	
13	30	
54	82	
55	56	
3	60	
45	52	
31	71	
21	59	
80	46	
66	70	
43	92	
57	100	
19	95	
12	32	
74	19	
53	53	
44	88	
0	52	
18	48	
34	66	
64	76	
17	94	
69	55	
35	0	
96	85	
66	21	
65	81	
4	50	
12	93	
62	69	
65	1	
39	8	
63	79	
88	61	
62	65	
16	3	
91	0	
64	98	
58	26	
87	77	
25	11	
8	1	
12	73	
98	77	
50	100	
51	45	
36	95	
50	96	
88	6	
57	49	
18	75	
83	87	
17	61	
76	83	
99	0	
19	79	
34	9	
87	54	
37	8	
23	53	
3	54	
0	82	
65	12	
5	98	
57	31	
78	94	
44	3	
58	76	
21	12	
35	57	
94	40	
29	38	
8	0	
9	56	
47	75	
48	24	
13	94	
10	64	
82	87	
60	9	
78	47	
12	69	
11	22	
57	52	
80	66	
84	60	
68	66	
59	19	
87	16	
41	41	
72	70	
26	92	
3	77	
53	3	
70	39	
51	90	
62	74	
27	21	
72	4	
48	16	
45	15	
44	83	
96	79	
34	65	
88	71	
43	75	
42	89	
79	90	
68	86	
58	69	
2	68	
70	40	
39	46	
74	29	
0	9	
96	46	
20	17	
56	89	
78	38	
1	52	
36	89	
92	98	
17	11	
36	72	
4	96	
50	70	
12	30	
81	62	
81	47	
59	72	
4	99	
83	30	
86	48	
59	66	
60	61	
68	32	
63	35	
59	96	
85	63	
36	81	
15	64	
50	8	
63	86	
18	37	
96	39	
87	78	
38	28	
18	26	
31	50	
39	29	
91	15	
52	45	
13	45	
74	0	
75	15	
83	10	
48	44	
90	94	
41	98	
97	8	
89	81	
10	97	
37	67	
52	21	
90	0	
18	49	
40	42	
40	73	
2	64	
56	48	
52	24	
29	79	
98	70	
39	18	
42	49	
33	72	
65	38	
99	40	
84	98	
68	47	
24	66	
36	16	
72	51	
41	87	
50	64	
81	75	
14	59	
66	87	
29	10	
76	44	
59	37	
67	39	
69	50	
85	68	
99	89	
32	16	
65	16	
52	15	
73	76	
15	39	
15	45	
76	59	
81	51	
69	77	
69	83	
54	53	
35	8	
20	2	
9	75	
16	46	
83	90	
5	27	
74	28	
65	23	
90	96	
17	15	
15	86	
82	18	
28	83	
22	68	
71	59	
94	12	
43	80	
92	61	
40	55	
5	58	
94	92	
89	43	
74	22	
77	50	
44	100	
28	39	
20	68	
53	67	
42	70	
44	65	
72	42	
85	98	
66	24	
22	34	
82	41	
11	15	
20	76	
46	93	
31	59	
89	45	
91	33	
66	88	
14	90	
76	69	
64	74	
57	67	
50	13	
21	62	
19	75	
24	12	
12	82	
67	23	
11	96	
73	50	
80	5	
97	20	
69	69	
79	70	
14	43	
51	62	
66	42	
5	60	
61	29	
93	63	
11	60	
5	13	
10	60	
19	84	
25	93	
80	94	
19	6	
6	33	
99	41	
21	48	
86	51	
55	61	
57	15	
27	34	
90	39	
1	91	
22	97	
48	25	
8	71	
12	97	
99	27	
10	17	
87	95	
45	55	
93	97	
68	3	
35	71	
58	74	
68	27	
53	19	
45	67	
54	72	
8	24	
93	34	
97	75	
47	6	
32	9	
90	20	
72	32	
57	93	
87	31	
16	56	
3	67	
86	63	
5	70	
23	62	
36	96	
75	67	
15	24	
30	54	
98	23	
11	35	
6	91	
81	74	
58	95	
0	42	
86	70	
83	73	
64	78	
49	9	
12	21	
1	7	
11	41	
8	91	
71	66	
67	15	
19	53	
38	20	
83	91	
94	73	
0	51	
63	50	
87	43	
54	5	
9	7	
71	69	
90	17	
31	7	
9	84	
36	20	
28	59	
64	18	
91	62	
35	2	
77	37	
31	9	
75	76	
51	15	
11	68	
93	74	
62	48	
11	78	
60	2	
91	36	
8	61	
16	16	
95	55	
26	69	
84	13	
41	89	
37	6	
99	42	
51	54	
13	35	
34	53	
57	9	
93	36	
26	26	
43	95	
73	41	
8	99	
55	80	
37	0	
30	60	
83	53	
6	55	
79	52	
7	78	
72	49	
24	29	
11	84	
47	28	
26	28	
100	10	
26	91	
49	67	
48	34	
30	87	
58	64	
60	97	
26	58	
59	52	
54	32	
9	24	
24	55	
100	99	
17	86	
8	12	
12	75	
84	35	
53	41	
93	87	
21	49	
31	4	
66	43	
58	99	
15	14	
65	63	
100	84	
47	96	
25	72	
5	81	
80	84	
7	67	
11	21	
0	24	
22	66	
99	1	
32	85	
45	24	
96	62	
53	30	
56	66	
46	79	
66	6	
25	85	
99	21	
53	17	
50	18	
18	98	
20	97	
77	32	
87	10	
64	52	
21	40	
55	14	
94	49	
52	10	
53	2	
88	36	
44	34	
12	12	
46	96	
67	88	
22	98	
95	15	
65	4	
5	39	
56	43	
33	26	
88	59	
53	87	
1	83	
87	72	
51	48	
37	76	
83	80	
58	37	
66	98	
84	92	
30	99	
27	31	
5	49	
75	61	
41	4	
61	88	
40	38	
63	3	
76	51	
57	10	
34	24	
97	41	
58	57	
43	97	
78	62	
76	80	
86	39	
5	76	
34	95	
3	4	
44	64	
79	98	
60	45	
1	13	
39	45	
52	37	
62	82	
95	60	
41	88	
81	86	
100	56	
50	87	
55	6	
50	27	
29	54	
93	42	
18	27	
73	78	
19	16	
90	51	
29	27	
57	47	
64	69	
77	26	
97	68	
81	88	
89	9	
28	80	
47	54	
16	99	
72	19	
18	39	
76	98	
96	25	
69	96	
67	80	
74	7	
67	16	
33	99	
85	75	
29	85	
99	84	
10	68	
66	4	
80	76	
18	65	
96	11	
23	56	
69	11	
66	79	
64	32	
49	69	
12	85	
14	15	
39	30	
10	45	
6	5	
6	38	
55	15	
57	28	
60	4	
46	41	
32	12	
24	93	
28	57	
3	86	
59	61	
78	69	
62	16	
63	80	
55	59	
71	42	
1	25	
46	10	
64	0	
1	8	
87	87	
39	90	
20	15	
47	25	
3	74	
50	99	
11	50	
72	86	
24	41	
90	50	
80	60	
52	31	
46	5	
93	8	
43	21	
88	74	
48	84	
90	14	
43	17	
57	48	
55	42	
52	33	
17	19	
35	89	
79	39	
28	33	
1	22	
2	55	
31	19	
59	6	
95	54	
75	73	
11	71	
98	90	
38	57	
92	8	
73	32	
67	10	
36	23	
4	17	
69	43	
98	18	
91	66	
82	67	
38	7	
47	10	
33	25	
40	43	
90	12	
1	24	
96	9	
78	43	
32	89	
84	25	
45	70	
83	23	
83	45	
33	9	
71	89	
49	62	
61	58	
39	17	
46	32	
100	70	
95	40	
44	49	
90	100	
76	37	
21	58	
9	34	
87	46	
5	40	
8	76	
15	11	
1	48	
61	80	
16	77	
50	92	
33	40	
77	12	
54	3	
31	34	
84	14	
43	99	
21	70	
85	7	
82	3	
82	24	
89	88	
93	14	
68	63	
99	70	
87	28	
21	86	
51	33	
13	13	
50	16	
74	3	
30	67	
59	67	
52	100	
87	15	
31	76	
44	27	
100	63	
51	70	
72	47	
77	61	
87	80	
82	30	
44	26	
67	68	
63	94	
64	14	
51	79	
1	90	
15	60	
20	75	
20	86	
23	42	
74	42	
16	78	
40	97	
19	71	
64	57	
8	84	
40	81	
87	11	
90	98	
25	59	
76	73	
3	34	
9	93	
25	100	
93	69	
59	93	
60	17	
62	72	
37	1	
77	5	
84	6	
30	35	
15	51	
83	0	
72	40	
74	32	
21	24	
88	100	
45	79	
77	20	
77	84	
22	42	
84	52	
73	22	
52	32	
94	97	
73	28	
73	81	
28	91	
70	95	
2	78	
57	63	
96	78	
14	63	
87	40	
70	54	
51	75	
89	6	
5	77	
86	14	
3	2	
36	80	
36	61	
0	34	
0	61	
92	85	
14	30	
11	76	
47	84	
97	7	
0	90	
3	61	
5	48	
45	76	
72	30	
37	48	
41	96	
49	54	
49	80	
33	96	
98	60	
58	21	
8	49	
30	74	
8	70	
18	87	
78	95	
36	71	
65	88	
47	87	
10	79	
88	92	
80	100	
100	62	
34	72	
