53	72	
38	62	
10	7	
25	34	
28	7	
42	100	
67	49	
5	55	
44	99	
3	84	
12	12	
49	15	
48	54	
7	76	
79	88	
69	30	
61	16	
47	9	
66	69	
75	9	
57	33	
75	81	
44	89	
11	37	
53	4	
56	54	
85	47	
71	0	
78	97	
16	7	
1	6	
43	33	
0	25	
24	10	
27	27	
5	65	
87	21	
6	99	
14	68	
2	22	
56	77	
42	52	
79	22	
73	88	
55	53	
96	42	
8	33	
16	51	
71	36	
92	49	
52	31	
99	73	
8	90	
14	11	
13	49	
91	56	
2	1	
90	96	
77	72	
85	50	
22	100	
8	39	
83	91	
87	22	
3	60	
93	84	
36	35	
78	57	
38	41	
66	75	
84	72	
13	8	
24	51	
39	92	
99	93	
86	74	
32	89	
42	55	
14	84	
2	35	
31	71	
97	82	
6	49	
4	26	
8	18	
85	79	
54	63	
90	18	
61	67	
86	17	
100	89	
29	86	
40	8	
8	10	
94	89	
54	93	
95	76	
23	42	
10	92	
22	10	
49	81	
88	6	
38	25	
91	39	
1	33	
45	32	
46	69	
65	18	
42	42	
43	35	
22	84	
76	94	
39	79	
56	69	
71	56	
22	55	
3	7	
61	13	
100	63	
61	91	
51	13	
18	41	
93	88	
92	92	
27	96	
1	45	
7	19	
10	80	
29	62	
90	86	
74	74	
68	75	
51	96	
65	43	
34	10	
44	42	
84	79	
32	35	
21	51	
23	68	
3	76	
57	75	
15	47	
37	30	
48	92	
60	65	
56	13	
88	13	
68	95	
53	63	
36	57	
25	72	
47	18	
7	42	
75	37	
0	73	
39	82	
97	66	
22	86	
50	85	
77	42	
85	22	
55	47	
10	20	
20	36	
60	47	
70	70	
37	100	
69	48	
65	71	
66	77	
64	75	
10	30	
70	2	
87	39	
78	79	
1	70	
29	31	
6	91	
80	60	
39	12	
76	48	
54	62	
66	79	
14	26	
82	4	
50	1	
41	1	
99	55	
29	94	
98	79	
4	6	
65	42	
71	52	
95	1	
52	67	
97	91	
74	31	
60	78	
30	3	
52	19	
51	88	
72	47	
77	67	
88	14	
88	74	
53	35	
85	26	
58	79	
87	18	
73	49	
66	25	
90	36	
4	96	
83	21	
8	57	
75	15	
40	40	
56	5	
5	48	
4	41	
82	83	
72	93	
77	9	
18	12	
21	79	
11	81	
9	91	
96	44	
0	87	
36	51	
36	9	
15	38	
13	4	
48	83	
75	56	
33	74	
76	35	
92	15	
84	9	
69	33	
46	67	
22	45	
86	56	
16	95	
77	88	
68	52	
14	99	
45	27	
32	40	
42	4	
94	95	
64	86	
12	28	
70	25	
10	5	
43	44	
59	43	
52	95	
22	30	
93	69	
16	27	
15	5	
35	75	
49	50	
45	38	
76	45	
20	12	
99	94	
76	74	
8	60	
37	52	
45	20	
98	15	
63	61	
68	9	
33	83	
87	53	
19	47	
18	3	
78	68	
74	52	
21	35	
69	57	
60	92	
29	47	
50	9	
86	94	
44	95	
65	54	
28	36	
63	12	
24	5	
89	91	
90	12	
17	13	
34	30	
49	76	
4	36	
37	54	
53	10	
41	90	
31	50	
17	99	
84	29	
20	7	
79	38	
97	85	
83	57	
43	25	
41	49	
11	50	
29	36	
62	13	
54	29	
6	59	
73	45	
6	66	
18	72	
25	18	
14	45	
46	49	
5	36	
15	3	
14	17	
32	44	
66	61	
71	100	
83	64	
47	17	
85	0	
69	91	
28	99	
30	82	
15	31	
5	100	
61	14	
22	61	
65	86	
7	33	
70	48	
65	49	
40	91	
23	25	
7	4	
67	72	
68	21	
68	28	
32	16	
41	29	
2	100	
49	89	
96	64	
86	24	
98	88	
90	55	
48	100	
69	70	
17	67	
49	82	
54	91	
14	95	
82	16	
59	95	
7	83	
35	59	
70	17	
11	93	
19	70	
48	30	
8	87	
86	31	
40	27	
97	58	
61	66	
87	74	
95	80	
69	26	
98	51	
64	93	
70	95	
14	87	
95	99	
19	35	
30	66	
90	16	
93	41	
49	58	
12	43	
25	1	
72	11	
10	44	
2	85	
67	93	
52	41	
99	28	
87	27	
21	34	
84	50	
41	92	
73	96	
3	65	
65	40	
66	51	
20	93	
33	76	
32	60	
82	30	
7	34	
76	50	
71	69	
55	81	
77	77	
23	35	
4	97	
76	32	
33	18	
14	8	
13	97	
0	61	
3	18	
10	24	
86	9	
66	30	
39	48	
81	86	
7	91	
13	47	
0	63	
61	68	
93	26	
43	73	
48	31	
98	39	
88	77	
89	16	
64	29	
75	5	
13	12	
10	33	
36	56	
80	82	
82	29	
68	62	
88	38	
79	89	
60	29	
46	62	
98	11	
40	1	
47	74	
12	83	
97	8	
71	89	
76	23	
5	22	
4	58	
86	21	
100	49	
5	92	
65	9	
19	25	
10	90	
77	13	
15	53	
82	53	
55	91	
72	7	
32	15	
17	39	
34	80	
97	4	
54	16	
96	40	
20	75	
48	26	
36	100	
82	69	
45	49	
42	22	
79	85	
75	0	
19	7	
9	6	
88	70	
39	66	
94	88	
25	24	
97	23	
63	23	
45	95	
31	47	
13	2	
36	19	
94	47	
74	78	
77	36	
91	11	
64	70	
51	46	
53	41	
55	93	
17	62	
79	3	
72	15	
53	61	
19	97	
11	36	
21	66	
32	43	
73	98	
94	24	
76	100	
62	81	
54	1	
73	0	
60	77	
91	16	
20	32	
62	52	
99	32	
15	26	
72	54	
23	21	
22	42	
2	9	
91	14	
30	12	
25	51	
67	45	
84	99	
45	54	
39	27	
8	32	
11	88	
34	45	
86	81	
10	62	
32	18	
79	68	
11	83	
80	39	
29	64	
79	17	
32	49	
61	23	
23	13	
8	13	
25	83	
66	18	
73	85	
61	17	
83	100	
47	34	
65	39	
80	87	
40	72	
32	84	
83	37	
2	93	
25	53	
12	75	
65	11	
7	80	
32	93	
34	2	
23	29	
79	66	
36	25	
89	38	
21	62	
88	61	
90	45	
66	64	
88	21	
31	31	
10	63	
1	60	
82	23	
19	17	
40	33	
45	64	
83	79	
68	93	
53	15	
41	66	
14	10	
70	73	
36	62	
12	32	
79	73	
39	41	
36	14	
37	97	
18	48	
39	81	
47	13	
47	64	
79	97	
0	24	
26	17	
56	73	
83	24	
48	90	
59	69	
63	93	
59	89	
87	34	
72	39	
61	55	
99	47	
61	53	
86	6	
61	40	
80	55	
32	88	
28	44	
7	87	
61	37	
98	12	
26	66	
91	98	
11	0	
85	88	
4	75	
26	96	
76	9	
72	96	
6	3	
6	84	
74	7	
38	1	
79	86	
34	7	
0	58	
35	32	
13	62	
87	58	
31	41	
75	16	
76	13	
100	90	
70	57	
83	3	
17	66	
75	52	
37	25	
44	54	
47	6	
60	56	
91	42	
5	52	
97	50	
97	1	
49	66	
73	92	
97	59	
44	84	
89	66	
54	37	
45	86	
75	88	
46	39	
0	56	
51	51	
36	73	
93	71	
5	99	
43	61	
24	70	
42	94	
33	49	
84	81	
28	43	
58	67	
98	19	
13	98	
23	46	
8	80	
93	43	
41	3	
0	59	
46	3	
17	71	
42	74	
24	89	
78	45	
3	25	
42	6	
5	11	
62	3	
55	8	
23	41	
0	20	
51	37	
42	90	
21	60	
30	71	
38	61	
63	43	
5	71	
72	87	
48	76	
60	63	
24	23	
13	95	
34	93	
92	37	
78	80	
67	61	
74	93	
57	7	
66	39	
91	69	
57	24	
44	27	
57	57	
4	71	
68	23	
6	39	
83	71	
64	46	
76	8	
38	16	
99	88	
49	70	
6	67	
78	78	
7	71	
66	20	
84	32	
91	43	
69	67	
72	62	
44	86	
48	96	
86	97	
78	39	
57	97	
45	62	
31	94	
19	44	
100	69	
66	89	
61	1	
61	6	
89	39	
45	28	
30	91	
54	74	
73	2	
93	3	
94	44	
79	41	
86	4	
100	59	
52	18	
32	74	
77	79	
16	68	
23	62	
31	68	
23	57	
76	72	
92	61	
89	82	
46	88	
63	91	
62	73	
22	14	
73	17	
65	27	
40	69	
44	15	
89	76	
10	59	
11	49	
89	28	
21	29	
57	85	
74	3	
81	58	
81	39	
84	3	
49	39	
42	96	
24	16	
46	75	
84	90	
8	89	
27	55	
24	87	
40	4	
17	1	
6	86	
34	94	
95	20	
24	35	
70	79	
0	85	
37	82	
69	72	
42	21	
72	21	
1	72	
27	71	
83	68	
90	71	
82	65	
40	54	
55	46	
60	36	
1	29	
80	65	
7	32	
76	28	
26	47	
34	43	
98	14	
61	52	
96	49	
62	96	
21	69	
0	13	
77	94	
96	92	
27	70	
91	40	
59	8	
74	76	
71	74	
65	37	
21	21	
74	70	
64	91	
24	52	
64	65	
21	14	
74	60	
79	77	
79	46	
87	11	
16	18	
20	56	
22	2	
93	39	
42	65	
76	1	
99	21	
27	0	
65	15	
65	50	
49	100	
60	87	
54	35	
66	73	
34	44	
71	76	
57	69	
9	39	
11	21	
42	99	
19	58	
13	35	
84	20	
55	33	
33	11	
76	31	
80	53	
37	34	
38	63	
4	63	
13	50	
38	15	
9	26	
54	8	
16	61	
14	76	
10	94	
39	47	
89	98	
7	6	
70	89	
53	22	
84	71	
73	80	
71	48	
30	78	
17	94	
63	66	
38	95	
77	45	
26	10	
58	47	
98	96	
17	77	
41	89	
58	15	
100	0	
57	22	
